<html>

<head>
  <title></title>
  <meta http-equiv="Content-Type" content="text/html; charset=utf-8" />
  <meta name="viewport" content="width=device-width, initial-scale=1">
  <meta http-equiv="X-UA-Compatible" content="IE=edge" />
  <link rel="stylesheet" href="https://maxcdn.bootstrapcdn.com/bootstrap/3.4.0/css/bootstrap.min.css">
  <script src="https://maxcdn.bootstrapcdn.com/bootstrap/3.4.0/js/bootstrap.min.js"></script>
  <style type="text/css">
    /* FONTS */
    .viewport {
      width: 450px;
      padding: 5px;
      position: relative;
    }
    .graph_image {
      width: 500px;
      padding: 5px;
      position: relative;
    }
    .mybox,
    .newsbox {
      box-shadow: 10px 10px 5px #aaaaaa;
      border: 1px solid #BFBFBF;
      padding-bottom: 15px;
      padding-left: 15px;
      padding-right: 15px;
      padding-top: 10px;
      word-break: break-word;
    }

    .viewport img {
      position: absolute;
      top: 50%;
      margin-top: -30px;
      border-radius: 50%;
      max-width:48px;
      max-height:48px;
    }

    .viewport span {
      margin-left: 68px;
      /* = image width + 8 */
      display: block;
    }

    @media screen {
      @font-face {
        font-family: 'Lato';
        font-style: normal;
        font-weight: 400;
        src: local('Lato Regular'), local('Lato-Regular'), url(https://fonts.gstatic.com/s/lato/v11/qIIYRU-oROkIk8vfvxw6QvesZW2xOQ-xsNqO47m55DA.woff) format('woff');
      }

      @font-face {
        font-family: 'Lato';
        font-style: normal;
        font-weight: 700;
        src: local('Lato Bold'), local('Lato-Bold'), url(https://fonts.gstatic.com/s/lato/v11/qdgUG4U09HnJwhYI-uK18wLUuEpTyoUstqEm5AMlJo4.woff) format('woff');
      }

      @font-face {
        font-family: 'Lato';
        font-style: italic;
        font-weight: 400;
        src: local('Lato Italic'), local('Lato-Italic'), url(https://fonts.gstatic.com/s/lato/v11/RYyZNoeFgb0l7W3Vu1aSWOvvDin1pK8aKteLpeZ5c0A.woff) format('woff');
      }

      @font-face {
        font-family: 'Lato';
        font-style: italic;
        font-weight: 700;
        src: local('Lato Bold Italic'), local('Lato-BoldItalic'), url(https://fonts.gstatic.com/s/lato/v11/HkF_qI1x_noxlxhrhMQYELO3LdcAZYWl9Si6vvxL-qU.woff) format('woff');
      }
    }

    /* CLIENT-SPECIFIC STYLES */
    body,
    table,
    td,
    a {
      -webkit-text-size-adjust: 100%;
      -ms-text-size-adjust: 100%;
    }

    table,
    td {
      mso-table-lspace: 0pt;
      mso-table-rspace: 0pt;
    }

    img {
      -ms-interpolation-mode: bicubic;
    }

    /* RESET STYLES */
    img {
      border: 0;
      height: auto;
      line-height: 100%;
      outline: none;
      text-decoration: none;
    }

    table {
      border-collapse: collapse !important;
    }

    body {
      height: 100% !important;
      margin: 0 !important;
      padding: 0 !important;
      width: 100% !important;
    }

    /* iOS BLUE LINKS */
    a[x-apple-data-detectors] {
      color: inherit !important;
      text-decoration: none !important;
      font-size: inherit !important;
      font-family: inherit !important;
      font-weight: inherit !important;
      line-height: inherit !important;
    }

    /* MOBILE STYLES */
    @media screen and (max-width:600px) {
      h1 {
        font-size: 32px !important;
        line-height: 32px !important;
      }
    }

    /* ANDROID CENTER FIX */
    div[style*="margin: 16px 0;"] {
      margin: 0 !important;
    }
  </style>
</head>

<body style="background-color: #f4f4f4; margin: 0 !important; padding: 0 !important;">
  <!-- HIDDEN PREHEADER TEXT -->
  <table border="0" cellpadding="0" cellspacing="0" width="100%">
    <!-- LOGO -->
    <tr>
      <td bgcolor="#e11b30" align="center">
        <table border="0" cellpadding="0" cellspacing="0" width="100%" style="max-width: 600px;">
          <tr>
            <td align="center" valign="top" style="padding: 40px 10px 40px 10px;">
              <a href="https://gpg.com/" target="_blank">
                <img alt="Logo" src="https://gpg.com/assets/img/gpg-rv.svg" width="100" height="40" style="display: block; width: 40px; max-width: 40px; min-width: 250px; font-family: 'Lato', Helvetica, Arial, sans-serif; color: #ffffff; font-size: 18px;"
                  border="0">
              </a>
            </td>
          </tr>
        </table>
      </td>
    </tr>
    <!-- HERO -->
    <tr>
      <td bgcolor="#e11b30" align="center" style="padding: 0px 10px 0px 10px;">
        <table border="0" cellpadding="0" cellspacing="0" width="100%" style="max-width: 600px;">
          <tr>
            <td bgcolor="#ffffff" align="center" valign="top" style="padding: 40px 20px 20px 20px; border-radius: 4px 4px 0px 0px; color: #111111; font-family: 'Lato', Helvetica, Arial, sans-serif; font-size: 48px; font-weight: 400; letter-spacing: 4px; line-height: 48px;">
            </td>
          </tr>
        </table>
      </td>
    </tr>
    <!-- COPY BLOCK -->
    <tr>
      <td bgcolor="#f4f4f4" align="center" style="padding: 0px 10px 0px 10px;">
        <table border="0" cellpadding="0" cellspacing="0" width="100%" style="max-width: 600px;">
          <!-- COPY -->
          <tr>
            <td bgcolor="#ffffff" align="left" style="padding: 20px 30px 40px 30px; color: #666666; font-family: 'Lato', Helvetica, Arial, sans-serif; font-size: 18px; font-weight: 400; line-height: 25px;">
              <p style="margin: 0;">
