"0","cindy_axne <- cindy_axne %>% "
"0","  filter(SourceCode %in% outlet_filter) "
"0","if (nrow(cindy_axne)>0) {"
"0","for (i in 1:nrow(cindy_axne)){"
"0","  search_Word <- paste(substr(cindy_axne$Title[i], 1, 50), cindy_axne$Author[i])"
"0","  search_Word <- gsub("";"", """", search_Word)#    search_Word <- gsub(""<hlt>"", """", search_Word)"
"0","  search_Word <- gsub(""</hlt>"", """", search_Word)"
"0","  search_Word <- gsub(""[^[:alnum:] ]"", """", search_Word)"
"0","  try(test <- google_basic(search_Word), silent=T)"
"0","  if (!is.na(test)){"
"0","    url <- test$URL[1]"
"0","    title_url <- paste0(""["", cindy_axne$Title[i], ""]"",""("", url, "")"")"
"0","    cindy_axne$Title[i] <- title_url"
"0","  }"
"0","}"
"0","cindy_axne %>% "
"0","  select(Title, Author, Source = SourceName, Snippet, Word) %>% "
"0","  kable(format = 'html') %>% "
"0","  kable_styling() %>% "
"0","  scroll_box(height = ""600px"")"
"0","}"
