"0","options(tinytex.verbose = TRUE)"
"0","#Creating the tweets table"
"0","flagged_tweets <- tweets %>%"
"0","  dplyr::filter(flags == T) %>%"
"0","  dplyr::select(user_screen_name, group, date, text, retweet_status, retweet_count, id_str_original, tweet_url) "
"0","flagged_tweets$text <- stringr::str_replace_all(flagged_tweets$text, ""\\n"", ""<br>"")"
"0","if(length(flagged_tweets$text) > 0) {"
"0","  flagged_tweets$text <- paste0(flagged_tweets$text, "" ("", flagged_tweets$tweet_url, "")"")"
"0","}"
"0","flagged_tweets <- flagged_tweets %>% "
"0","  dplyr::select(user_screen_name, group, text, date,retweet_status, retweet_count) %>%"
"0","  dplyr::rename(""Handle"" = ""user_screen_name"","
"0","                ""Group"" = ""group"","
"0","                ""Text"" = ""text"","
"0","                ""Date"" = ""date"","
"0","                ""Retweet Status"" = ""retweet_status"","
"0","                ""Retweets"" = ""retweet_count"")"
"0","if (nrow(flagged_tweets) > 0){"
"0","  kable(flagged_tweets, booktabs=T, longtable=T) %>%"
"0","    #kable_styling(full_width = F) %>%"
"0","    column_spec(3, width = ""15em"") %>%"
"0","    column_spec(4, width = ""5em"")"
"0","}"
